…
``` r
litters_data 
```

    ## # A tibble: 49 x 8
    ##    Group `Litter Number` `GD0 weight` `GD18 weight` `GD of Birth`
    ##    <chr> <chr>                  <dbl>         <dbl>         <dbl>
    ##  1 Con7  #85                     19.7          34.7            20
    ##  2 Con7  #1/2/95/2               27            42              19
    ##  3 Con7  #5/5/3/83/3-3           26            41.4            19
    ##  4 Con7  #5/4/2/95/2             28.5          44.1            19
    ##  5 Con7  #4/2/95/3-3             NA            NA              20
    ##  6 Con7  #2/2/95/3-2             NA            NA              20
    ##  7 Con7  #1/5/3/83/3-3/2         NA            NA              20
    ##  8 Con8  #3/83/3-3               NA            NA              20
    ##  9 Con8  #2/95/3                 NA            NA              20
    ## 10 Con8  #3/5/2/2/95             28.5          NA              20
    ## # … with 39 more rows, and 3 more variables: `Pups born alive` <dbl>,
    ## #   `Pups dead @ birth` <dbl>, `Pups survive` <dbl>

print data = good 1st step (onlt first few rows and columns)

to take janitor clean names and show them in the file

``` r
litters_data = janitor::clean_names(litters_data)

litters_data
```

    ## # A tibble: 49 x 8
    ##    group litter_number gd0_weight gd18_weight gd_of_birth pups_born_alive
    ##    <chr> <chr>              <dbl>       <dbl>       <dbl>           <dbl>
    ##  1 Con7  #85                 19.7        34.7          20               3
    ##  2 Con7  #1/2/95/2           27          42            19               8
    ##  3 Con7  #5/5/3/83/3-3       26          41.4          19               6
    ##  4 Con7  #5/4/2/95/2         28.5        44.1          19               5
    ##  5 Con7  #4/2/95/3-3         NA          NA            20               6
    ##  6 Con7  #2/2/95/3-2         NA          NA            20               6
    ##  7 Con7  #1/5/3/83/3-…       NA          NA            20               9
    ##  8 Con8  #3/83/3-3           NA          NA            20               9
    ##  9 Con8  #2/95/3             NA          NA            20               8
    ## 10 Con8  #3/5/2/2/95         28.5        NA            20               8
    ## # … with 39 more rows, and 2 more variables: pups_dead_birth <dbl>,
    ## #   pups_survive <dbl>
…
    ## Parsed with column specification:
    ## cols(
    ##   `Litter Number` = col_character(),
    ##   Sex = col_double(),
    ##   `PD ears` = col_double(),
    ##   `PD eyes` = col_double(),
    ##   `PD pivot` = col_double(),
    ##   `PD walk` = col_double()
    ## )

``` r
pups_data 
```

    ## # A tibble: 313 x 6
    ##    `Litter Number`   Sex `PD ears` `PD eyes` `PD pivot` `PD walk`
    ##    <chr>           <dbl>     <dbl>     <dbl>      <dbl>     <dbl>
    ##  1 #85                 1         4        13          7        11
    ##  2 #85                 1         4        13          7        12
    ##  3 #1/2/95/2           1         5        13          7         9
    ##  4 #1/2/95/2           1         5        13          8        10
    ##  5 #5/5/3/83/3-3       1         5        13          8        10
    ##  6 #5/5/3/83/3-3       1         5        14          6         9
    ##  7 #5/4/2/95/2         1        NA        14          5         9
    ##  8 #4/2/95/3-3         1         4        13          6         8
    ##  9 #4/2/95/3-3         1         4        13          7         9
    ## 10 #2/2/95/3-2         1         4        NA          8        10
    ## # … with 303 more rows

``` r
#clean name function is in the janitor package 

pups_data = janitor::clean_names(pups_data)

pups_data
```

    ## # A tibble: 313 x 6
    ##    litter_number   sex pd_ears pd_eyes pd_pivot pd_walk
    ##    <chr>         <dbl>   <dbl>   <dbl>    <dbl>   <dbl>
    ##  1 #85               1       4      13        7      11
    ##  2 #85               1       4      13        7      12
    ##  3 #1/2/95/2         1       5      13        7       9
    ##  4 #1/2/95/2         1       5      13        8      10
    ##  5 #5/5/3/83/3-3     1       5      13        8      10
    ##  6 #5/5/3/83/3-3     1       5      14        6       9
    ##  7 #5/4/2/95/2       1      NA      14        5       9
    ##  8 #4/2/95/3-3       1       4      13        6       8
    ##  9 #4/2/95/3-3       1       4      13        7       9
    ## 10 #2/2/95/3-2       1       4      NA        8      10
    ## # … with 303 more rows
…
^tells the type of data in each column

You can use the readeacel package to load excel datsets as well

``` r
library(readxl)

mlb11_data = read_excel(path = "./data/data_import_examples/mlb11.xlsx")

mlb11_data
```

    ## # A tibble: 30 x 12
    ##    team   runs at_bats  hits homeruns bat_avg strikeouts stolen_bases  wins
    ##    <chr> <dbl>   <dbl> <dbl>    <dbl>   <dbl>      <dbl>        <dbl> <dbl>
    ##  1 Texa…   855    5659  1599      210   0.283        930          143    96
    ##  2 Bost…   875    5710  1600      203   0.28        1108          102    90
    ##  3 Detr…   787    5563  1540      169   0.277       1143           49    95
    ##  4 Kans…   730    5672  1560      129   0.275       1006          153    71
    ##  5 St. …   762    5532  1513      162   0.273        978           57    90
    ##  6 New …   718    5600  1477      108   0.264       1085          130    77
    ##  7 New …   867    5518  1452      222   0.263       1138          147    97
    ##  8 Milw…   721    5447  1422      185   0.261       1083           94    96
    ##  9 Colo…   735    5544  1429      163   0.258       1201          118    73
    ## 10 Hous…   615    5598  1442       95   0.258       1164          118    56
    ## # … with 20 more rows, and 3 more variables: new_onbase <dbl>,
    ## #   new_slug <dbl>, new_obs <dbl>

Read in
SAS

``` r
pulse_data = haven::read_sas("./data/data_import_examples/public_pulse_data.sas7bdat")

pulse_data
```

    ## # A tibble: 1,087 x 7
    ##       ID   age Sex    BDIScore_BL BDIScore_01m BDIScore_06m BDIScore_12m
    ##    <dbl> <dbl> <chr>        <dbl>        <dbl>        <dbl>        <dbl>
    ##  1 10003  48.0 male             7            1            2            0
    ##  2 10015  72.5 male             6           NA           NA           NA
    ##  3 10022  58.5 male            14            3            8           NA
    ##  4 10026  72.7 male            20            6           18           16
    ##  5 10035  60.4 male             4            0            1            2
    ##  6 10050  84.7 male             2           10           12            8
    ##  7 10078  31.3 male             4            0           NA           NA
    ##  8 10088  56.9 male             5           NA            0            2
    ##  9 10091  76.0 male             0            3            4            0
    ## 10 10092  74.2 female          10            2           11            6
    ## # … with 1,077 more rows
…
